calc.vcd
$date
  Sun Apr 29 14:39:00 2018
$end
$version
  GHDL v0
$end
$timescale
  1 fs
$end
$var reg 8 ! i[7:0] $end
$var reg 1 " clk $end
$scope module c1 $end
$var reg 8 # i[7:0] $end
$var reg 1 $ clk $end
$var reg 2 % r1[1:0] $end
$var reg 2 & r2[1:0] $end
$var reg 2 ' rd[1:0] $end
$var reg 4 ( imm[3:0] $end
$var reg 4 ) skipval[3:0] $end
$var reg 4 * inskip[3:0] $end
$var reg 4 + postskip[3:0] $end
$var reg 4 , newimm[3:0] $end
$var reg 1 - aluskip $end
$var reg 1 . pt $end
$var reg 1 / dispbeq $end
$var reg 1 0 regwrite $end
$var reg 1 1 addsub $end
$var reg 1 2 load $end
$var reg 1 3 f $end
$var reg 1 4 skipcontrol $end
$var reg 1 5 outskip $end
$var reg 1 6 renable $end
$var reg 1 7 intemp $end
$var reg 1 8 printenable $end
$var reg 1 9 temp2 $end
$var reg 1 : srenable $end
$var reg 8 ; o1[7:0] $end
$var reg 8 < o2[7:0] $end
$var reg 8 = ext[7:0] $end
$var reg 8 > wb[7:0] $end
$var reg 8 ? sum[7:0] $end
$var reg 8 @ aluo[7:0] $end
$var reg 8 A p[7:0] $end
$var reg 8 B lb[7:0] $end
$scope module con $end
$var reg 8 C i[7:0] $end
$var reg 1 D aluskip $end
$var reg 1 E print $end
$var reg 1 F dispbeq $end
$var reg 1 G regwrite $end
$var reg 1 H addsub $end
$var reg 1 I load $end
$var reg 4 J s[3:0] $end
$upscope $end
$scope module id $end
$var reg 8 K i[7:0] $end
$var reg 1 L consig $end
$var reg 2 M r1[1:0] $end
$var reg 2 N r2[1:0] $end
$var reg 2 O rd[1:0] $end
$var reg 4 P imm[3:0] $end
$var reg 2 Q s1[1:0] $end
$var reg 4 R s2[3:0] $end
$upscope $end
$scope module se $end
$var reg 4 S i[3:0] $end
$var reg 8 T o[7:0] $end
$upscope $end
$scope module reg $end
$var reg 2 U r1[1:0] $end
$var reg 2 V r2[1:0] $end
$var reg 2 W rd[1:0] $end
$var reg 8 X wb[7:0] $end
$var reg 1 Y clk $end
$var reg 1 Z enable $end
$var reg 8 [ o1[7:0] $end
$var reg 8 \ o2[7:0] $end
$var reg 8 ] v0[7:0] $end
$var reg 8 ^ v1[7:0] $end
$var reg 8 _ v2[7:0] $end
$var reg 8 ` v3[7:0] $end
$var reg 8 a t0[7:0] $end
$var reg 8 b t1[7:0] $end
$var reg 8 c t2[7:0] $end
$var reg 8 d t3[7:0] $end
$scope module ff0 $end
$var reg 8 e d[7:0] $end
$var reg 1 f clk $end
$var reg 1 g enable $end
$var reg 8 h q[7:0] $end
$upscope $end
$scope module ff1 $end
$var reg 8 i d[7:0] $end
$var reg 1 j clk $end
$var reg 1 k enable $end
$var reg 8 l q[7:0] $end
$upscope $end
$scope module ff2 $end
$var reg 8 m d[7:0] $end
$var reg 1 n clk $end
$var reg 1 o enable $end
$var reg 8 p q[7:0] $end
$upscope $end
$scope module ff3 $end
$var reg 8 q d[7:0] $end
$var reg 1 r clk $end
$var reg 1 s enable $end
$var reg 8 t q[7:0] $end
$upscope $end
$upscope $end
$scope module alu $end
$var reg 8 u a[7:0] $end
$var reg 8 v b[7:0] $end
$var reg 1 w mode $end
$var reg 1 x flow $end
$var reg 8 y s[7:0] $end
$var reg 8 z c[7:0] $end
$scope module fa1 $end
$var reg 1 { i1 $end
$var reg 1 | i2 $end
$var reg 1 } m $end
$var reg 1 !" cin $end
$var reg 1 "" sum $end
$var reg 1 #" cout $end
$var reg 1 $" x $end
$upscope $end
$scope module fa2 $end
$var reg 1 %" i1 $end
$var reg 1 &" i2 $end
$var reg 1 '" m $end
$var reg 1 (" cin $end
$var reg 1 )" sum $end
$var reg 1 *" cout $end
$var reg 1 +" x $end
$upscope $end
$scope module fa3 $end
$var reg 1 ," i1 $end
$var reg 1 -" i2 $end
$var reg 1 ." m $end
$var reg 1 /" cin $end
$var reg 1 0" sum $end
$var reg 1 1" cout $end
$var reg 1 2" x $end
$upscope $end
$scope module fa4 $end
$var reg 1 3" i1 $end
$var reg 1 4" i2 $end
$var reg 1 5" m $end
$var reg 1 6" cin $end
$var reg 1 7" sum $end
$var reg 1 8" cout $end
$var reg 1 9" x $end
$upscope $end
$scope module fa5 $end
$var reg 1 :" i1 $end
$var reg 1 ;" i2 $end
$var reg 1 <" m $end
$var reg 1 =" cin $end
$var reg 1 >" sum $end
$var reg 1 ?" cout $end
$var reg 1 @" x $end
$upscope $end
$scope module fa6 $end
$var reg 1 A" i1 $end
$var reg 1 B" i2 $end
$var reg 1 C" m $end
$var reg 1 D" cin $end
$var reg 1 E" sum $end
$var reg 1 F" cout $end
$var reg 1 G" x $end
$upscope $end
$scope module fa7 $end
$var reg 1 H" i1 $end
$var reg 1 I" i2 $end
$var reg 1 J" m $end
$var reg 1 K" cin $end
$var reg 1 L" sum $end
$var reg 1 M" cout $end
$var reg 1 N" x $end
$upscope $end
$scope module fa8 $end
$var reg 1 O" i1 $end
$var reg 1 P" i2 $end
$var reg 1 Q" m $end
$var reg 1 R" cin $end
$var reg 1 S" sum $end
$var reg 1 T" cout $end
$var reg 1 U" x $end
$upscope $end
$upscope $end
$scope module p1 $end
$var reg 8 V" i[7:0] $end
$var reg 1 W" en $end
$var reg 1 X" clk $end
$upscope $end
$scope module sr $end
$var reg 4 Y" i[3:0] $end
$var reg 1 Z" i_shift_in $end
$var reg 2 [" sel[1:0] $end
$var reg 1 \" clock $end
$var reg 1 ]" enable $end
$var reg 4 ^" o[3:0] $end
$upscope $end
$upscope $end
$enddefinitions $end
#0
bUUUUUUUU !
0"
bUUUUUUUU #
0$
bUU %
bUU &
bUU '
bUUUU (
bUUUU )
bUUUU *
bUUUU +
bUUUU ,
U-
U.
U/
U0
U1
U2
U3
U4
U5
06
07
U8
U9
U:
bUUUUUUUU ;
bUUUUUUUU <
bUUUUUUUU =
bUUUUUUUU >
bUUUUUUUU ?
bUUUUUUUU @
bUUUUUUUU A
bUUUUUUUU B
bUUUUUUUU C
UD
UE
UF
UG
UH
UI
bUUUU J
bUUUUUUUU K
UL
bUU M
bUU N
bUU O
bUUUU P
bUU Q
bUUUU R
bUUUU S
bUUUUUUUU T
bUU U
bUU V
bUU W
bUUUUUUUU X
0Y
UZ
bUUUUUUUU [
bUUUUUUUU \
bUUUUUUUU ]
bUUUUUUUU ^
bUUUUUUUU _
bUUUUUUUU `
bUUUUUUUU a
bUUUUUUUU b
bUUUUUUUU c
bUUUUUUUU d
bUUUUUUUU e
0f
Ug
bUUUUUUUU h
bUUUUUUUU i
0j
Uk
bUUUUUUUU l
bUUUUUUUU m
0n
Uo
bUUUUUUUU p
bUUUUUUUU q
0r
Us
bUUUUUUUU t
bUUUUUUUU u
bUUUUUUUU v
Uw
Ux
bUUUUUUUU y
bUUUUUUUU z
U{
U|
U}
U!"
U""
U#"
U$"
U%"
U&"
U'"
U("
U)"
U*"
U+"
U,"
U-"
U."
U/"
U0"
U1"
U2"
U3"
U4"
U5"
U6"
U7"
U8"
U9"
U:"
U;"
U<"
U="
U>"
U?"
U@"
UA"
UB"
UC"
UD"
UE"
UF"
UG"
UH"
UI"
UJ"
UK"
UL"
UM"
UN"
UO"
UP"
UQ"
UR"
US"
UT"
UU"
bUUUUUUUU V"
UW"
0X"
bUUUU Y"
0Z"
b10 ["
0\"
U]"
bUUUU ^"
#5000000
b11000000 !
1"
b11000000 #
1$
b00 %
b00 &
b00 '
b0000 (
b0000 )
b0000 *
1-
1.
0/
00
11
02
04
16
18
0:
b00000000 =
b00000000 >
b11000000 C
1D
1E
0F
0G
1H
0I
b0111 J
b11000000 K
0L
b00 M
b00 N
b00 O
b0000 P
b00 Q
b0000 R
b0000 S
b00000000 T
b00 U
b00 V
b00 W
b00000000 X
1Y
0Z
1f
0g
1j
0k
1n
0o
1r
0s
1w
1}
1!"
1'"
1."
15"
1<"
1C"
1J"
1Q"
1W"
1X"
b0000 Y"
1\"
0]"
#10000000
0"
0$
06
0Y
0f
0j
0n
0r
0X"
0\"
#15000000
b11000001 !
1"
b11000001 #
1$
b01 %
b0001 (
b0010 ,
16
b00000001 =
b00000001 >
b11000001 C
b11000001 K
b01 M
b0001 P
b01 Q
b0001 R
b0001 S
b00000001 T
b01 U
b00000001 X
1Y
1f
1j
1n
1r
1X"
1\"
#20000000
0"
0$
06
0Y
0f
0j
0n
0r
0X"
0\"
#25000000
b11000010 !
1"
b11000010 #
1$
b10 %
b0010 (
b0100 ,
16
b00000010 =
b00000010 >
b11000010 C
b11000010 K
b10 M
b0010 P
b10 Q
b0010 R
b0010 S
b00000010 T
b10 U
b00000010 X
1Y
1f
1j
1n
1r
1X"
1\"
#30000000
0"
0$
06
0Y
0f
0j
0n
0r
0X"
0\"
#35000000
b11000011 !
1"
b11000011 #
1$
b11 %
b0011 (
16
b00000011 =
b00000011 >
b11000011 C
b11000011 K
b11 M
b0011 P
b11 Q
b0011 R
b0011 S
b00000011 T
b11 U
b00000011 X
1Y
1f
1j
1n
1r
1X"
1\"
#40000000
0"
0$
06
0Y
0f
0j
0n
0r
0X"
0\"
#45000000
b10000101 !
1"
b10000101 #
1$
b01 %
b01 &
b0101 (
0.
10
16
08
b00000101 =
b00000101 >
b10000101 C
0E
1G
b1000 J
b10000101 K
b01 M
b01 N
b0101 P
b01 Q
b0001 R
b0101 S
b00000101 T
b01 U
b01 V
b00000101 X
1Y
1Z
b00000101 ]
b00000101 e
1f
1g
1j
1k
1n
1o
1r
1s
0W"
1X"
1\"
#50000000
0"
0$
06
0Y
0f
0j
0n
0r
0X"
0\"
#55000000
b11000000 !
1"
b11000000 #
1$
b00 %
b00 &
b0000 (
b0010 ,
1-
1.
00
03
16
18
b00000101 ;
b00000101 <
b00000000 =
b00000000 >
b00000000 ?
b00000101 @
b00000101 A
b11000000 C
1D
1E
0G
b0111 J
b11000000 K
b00 M
b00 N
b0000 P
b00 Q
b0000 R
b0000 S
b00000000 T
b00 U
b00 V
b00000000 X
1Y
0Z
b00000101 [
b00000101 \
b00000101 a
1f
0g
b00000101 h
1j
0k
1n
0o
1r
0s
b00000101 u
b00000101 v
0x
b00000000 y
b11111111 z
1{
1|
0""
1#"
0$"
0%"
0&"
1("
0)"
1*"
1+"
1,"
1-"
1/"
00"
11"
02"
03"
04"
16"
07"
18"
19"
0:"
0;"
1="
0>"
1?"
1@"
0A"
0B"
1D"
0E"
1F"
1G"
0H"
0I"
1K"
0L"
1M"
1N"
0O"
0P"
1R"
0S"
1T"
1U"
b00000101 V"
1W"
1X"
1\"
#60000000
0"
0$
06
0Y
0f
0j
0n
0r
0X"
0\"
#65000000
b10011101 !
1"
b10011101 #
1$
b01 %
b11 &
b01 '
b1101 (
0.
10
U3
16
08
U9
bUUUUUUUU ;
bUUUUUUUU <
b11111101 =
b11111101 >
bUUUUUUUU ?
bUUUUUUUU @
bUUUUUUUU B
b10011101 C
0E
1G
b1000 J
b10011101 K
b01 M
b11 N
b01 O
b1101 P
b01 Q
b0001 R
b1101 S
b11111101 T
b01 U
b11 V
b01 W
b11111101 X
1Y
1Z
bUUUUUUUU [
bUUUUUUUU \
b11111101 ^
1f
1g
b11111101 i
1j
1k
1n
1o
1r
1s
bUUUUUUUU u
bUUUUUUUU v
Ux
bUUUUUUUU y
bUUUUUUUU z
U{
U|
U""
U#"
U$"
U%"
U&"
U("
U)"
U*"
U+"
U,"
U-"
U/"
U0"
U1"
U2"
U3"
U4"
U6"
U7"
U8"
U9"
U:"
U;"
U="
U>"
U?"
U@"
UA"
UB"
UD"
UE"
UF"
UG"
UH"
UI"
UK"
UL"
UM"
UN"
UO"
UP"
UR"
US"
UT"
UU"
0W"
1X"
1\"
#70000000
0"
0$
06
0Y
0f
0j
0n
0r
0X"
0\"
#75000000
b11000001 !
1"
b11000001 #
1$
b00 &
b00 '
b0001 (
1-
1.
00
03
16
18
b11111101 ;
b00000101 <
b00000001 =
b00000001 >
b11111000 ?
b11111101 @
b11111101 A
b11000001 C
1D
1E
0G
b0111 J
b11000001 K
b00 N
b00 O
b0001 P
b0001 S
b00000001 T
b00 V
b00 W
b00000001 X
1Y
0Z
b11111101 [
b00000101 \
b11111101 b
1f
0g
1j
0k
b11111101 l
1n
0o
1r
0s
b11111101 u
b00000101 v
0x
b11111000 y
b11111111 z
1{
1|
0""
1#"
0$"
0%"
0&"
1("
0)"
1*"
1+"
1,"
1-"
1/"
00"
11"
02"
13"
04"
16"
17"
18"
19"
1:"
0;"
1="
1>"
1?"
1@"
1A"
0B"
1D"
1E"
1F"
1G"
1H"
0I"
1K"
1L"
1M"
1N"
1O"
0P"
1R"
1S"
1T"
1U"
b11111101 V"
1W"
1X"
1\"
#80000000
0"
0$
06
0Y
0f
0j
0n
0r
0X"
0\"
#85000000
b10100000 !
1"
b10100000 #
1$
b00 %
b10 '
b0000 (
0.
10
16
08
09
b00000101 ;
b00000000 =
b00000000 >
b00000000 ?
b00000101 @
b00000101 B
b10100000 C
0E
1G
b1000 J
b10100000 K
b00 M
b10 O
b0000 P
b00 Q
b0000 R
b0000 S
b00000000 T
b00 U
b10 W
b00000000 X
1Y
1Z
b00000101 [
b00000000 _
1f
1g
1j
1k
b00000000 m
1n
1o
1r
1s
b00000101 u
b00000000 y
03"
07"
0:"
0>"
0A"
0E"
0H"
0L"
0O"
0S"
0W"
1X"
1\"
#90000000
0"
0$
06
0Y
0f
0j
0n
0r
0X"
0\"
#95000000
b11000010 !
1"
b11000010 #
1$
b10 %
b00 '
b0010 (
b0100 ,
1-
1.
00
03
16
18
b00000000 ;
b00000010 =
b00000010 >
b11111011 ?
b00000000 @
b00000000 A
b11000010 C
1D
1E
0G
b0111 J
b11000010 K
b10 M
b00 O
b0010 P
b10 Q
b0010 R
b0010 S
b00000010 T
b10 U
b00 W
b00000010 X
1Y
0Z
b00000000 [
b00000000 c
1f
0g
1j
0k
1n
0o
b00000000 p
1r
0s
b00000000 u
0x
b11111011 y
b00000000 z
0{
1""
0#"
0("
1)"
0*"
0,"
0/"
00"
01"
06"
17"
08"
0="
1>"
0?"
0D"
1E"
0F"
0K"
1L"
0M"
0R"
1S"
0T"
b00000000 V"
1W"
1X"
1\"
#100000000
0"
0$
06
0Y
0f
0j
0n
0r
0X"
0\"
#105000000
b10110111 !
1"
b10110111 #
1$
b11 %
b01 &
b11 '
b0111 (
0.
10
U3
16
08
U9
bUUUUUUUU ;
b11111101 <
b00000111 =
b00000111 >
bUUUUUUUU ?
bUUUUUUUU @
bUUUUUUUU B
b10110111 C
0E
1G
b1000 J
b10110111 K
b11 M
b01 N
b11 O
b0111 P
b11 Q
b0011 R
b0111 S
b00000111 T
b11 U
b01 V
b11 W
b00000111 X
1Y
1Z
bUUUUUUUU [
b11111101 \
b00000111 `
1f
1g
1j
1k
1n
1o
b00000111 q
1r
1s
bUUUUUUUU u
b11111101 v
Ux
bUUUUUUUU y
bUUUUUUUU z
U{
U""
U#"
U%"
U("
U)"
U*"
U,"
U/"
U0"
U1"
U3"
14"
U6"
U7"
U8"
09"
U:"
1;"
U="
U>"
U?"
0@"
UA"
1B"
UD"
UE"
UF"
0G"
UH"
1I"
UK"
UL"
UM"
0N"
UO"
1P"
UR"
US"
UT"
0U"
0W"
1X"
1\"
#110000000
0"
0$
06
0Y
0f
0j
0n
0r
0X"
0\"
#115000000
b11000011 !
1"
b11000011 #
1$
b00 &
b00 '
b0011 (
1-
1.
00
03
16
18
b00000111 ;
b00000101 <
b00000011 =
b00000011 >
b00000010 ?
b00000111 @
b00000111 A
b11000011 C
1D
1E
0G
b0111 J
b11000011 K
b00 N
b00 O
b0011 P
b0011 S
b00000011 T
b00 V
b00 W
b00000011 X
1Y
0Z
b00000111 [
b00000101 \
b00000111 d
1f
0g
1j
0k
1n
0o
1r
0s
b00000111 t
b00000111 u
b00000101 v
0x
b00000010 y
b11111111 z
1{
0""
1#"
1%"
1("
1)"
1*"
1,"
1/"
00"
11"
03"
04"
16"
07"
18"
19"
0:"
0;"
1="
0>"
1?"
1@"
0A"
0B"
1D"
0E"
1F"
1G"
0H"
0I"
1K"
0L"
1M"
1N"
0O"
0P"
1R"
0S"
1T"
1U"
b00000111 V"
1W"
1X"
1\"
#120000000
0"
0$
06
0Y
0f
0j
0n
0r
0X"
0\"
#125000000
b10001000 !
1"
b10001000 #
1$
b00 %
b10 &
b1000 (
0.
10
16
08
09
b00000101 ;
b00000000 <
b11111000 =
b11111000 >
b00000101 ?
b00000101 @
b00000101 B
b10001000 C
0E
1G
b1000 J
b10001000 K
b00 M
b10 N
b1000 P
b00 Q
b0000 R
b1000 S
b11111000 T
b00 U
b10 V
b11111000 X
1Y
1Z
b00000101 [
b00000000 \
b11111000 ]
b11111000 e
1f
1g
1j
1k
1n
1o
1r
1s
b00000101 u
b00000000 v
b00000101 y
0|
1""
1$"
0%"
0)"
0-"
10"
12"
0W"
1X"
1\"
#130000000
0"
0$
06
0Y
0f
0j
0n
0r
0X"
0\"
#135000000
b11000000 !
1"
b11000000 #
1$
b00 &
b0000 (
1-
1.
00
16
18
b11111000 ;
b11111000 <
b00000000 =
b00000000 >
b00000000 ?
b11111000 @
b11111000 A
b11000000 C
1D
1E
0G
b0111 J
b11000000 K
b00 N
b0000 P
b0000 S
b00000000 T
b00 V
b00000000 X
1Y
0Z
b11111000 [
b11111000 \
b11111000 a
1f
0g
b11111000 h
1j
0k
1n
0o
1r
0s
b11111000 u
b11111000 v
b00000000 y
0{
0""
0,"
00"
13"
14"
07"
09"
1:"
1;"
0>"
0@"
1A"
1B"
0E"
0G"
1H"
1I"
0L"
0N"
1O"
1P"
0S"
0U"
b11111000 V"
1W"
1X"
1\"
#140000000
0"
0$
06
0Y
0f
0j
0n
0r
0X"
0\"
#145000000
b00011001 !
1"
b00011001 #
1$
b10 %
b01 &
b01 '
b1001 (
0-
0.
10
01
12
03
16
08
09
b00000000 ;
b11111101 <
b11111001 =
b11111101 >
b11111101 ?
b11111101 @
b11111101 B
b00011001 C
0D
0E
1G
0H
1I
b0000 J
b00011001 K
b10 M
b01 N
b01 O
b1001 P
b01 Q
b0001 R
b1001 S
b11111001 T
b10 U
b01 V
b01 W
b11111101 X
1Y
1Z
b00000000 [
b11111101 \
b11111101 ^
1f
1g
b11111101 i
1j
1k
1n
1o
1r
1s
b00000000 u
b11111101 v
0w
0x
b11111101 y
b00000000 z
1|
0}
0!"
1""
0#"
1$"
0'"
0("
0*"
0+"
1-"
0."
0/"
10"
01"
12"
03"
05"
06"
17"
08"
19"
0:"
0<"
0="
1>"
0?"
1@"
0A"
0C"
0D"
1E"
0F"
1G"
0H"
0J"
0K"
1L"
0M"
1N"
0O"
0Q"
0R"
1S"
0T"
1U"
0W"
1X"
1\"
#150000000
0"
0$
06
0Y
0f
0j
0n
0r
0X"
0\"
#155000000
b11000001 !
1"
b11000001 #
1$
b01 %
b00 &
b00 '
b0001 (
b0010 ,
1-
1.
00
11
02
03
16
18
b11111101 ;
b11111000 <
b00000001 =
b00000001 >
b00000101 ?
b11111101 @
b11111101 A
b11000001 C
1D
1E
0G
1H
0I
b0111 J
b11000001 K
b01 M
b00 N
b00 O
b0001 P
b0001 S
b00000001 T
b01 U
b00 V
b00 W
b00000001 X
1Y
0Z
b11111101 [
b11111000 \
1f
0g
1j
0k
1n
0o
1r
0s
b11111101 u
b11111000 v
1w
0x
b00000101 y
b11111111 z
1{
0|
1}
1!"
1""
1#"
1$"
1'"
1("
1*"
1+"
1,"
0-"
1."
1/"
11"
12"
13"
15"
16"
07"
18"
09"
1:"
1<"
1="
0>"
1?"
0@"
1A"
1C"
1D"
0E"
1F"
0G"
1H"
1J"
1K"
0L"
1M"
0N"
1O"
1Q"
1R"
0S"
1T"
0U"
b11111101 V"
1W"
1X"
1\"
#160000000
0"
0$
06
0Y
0f
0j
0n
0r
0X"
0\"
#165000000
b00101101 !
1"
b00101101 #
1$
b11 %
b01 &
b10 '
b1101 (
0-
0.
10
01
12
16
08
09
b00000111 ;
b11111101 <
b11111101 =
b00000100 >
b00000100 ?
b00000100 @
b00000100 B
b00101101 C
0D
0E
1G
0H
1I
b0000 J
b00101101 K
b11 M
b01 N
b10 O
b1101 P
b1101 S
b11111101 T
b11 U
b01 V
b10 W
b00000100 X
1Y
1Z
b00000111 [
b11111101 \
b00000100 _
1f
1g
1j
1k
b00000100 m
1n
1o
1r
1s
b00000111 u
b11111101 v
0w
b00000100 y
b11111111 z
1|
0}
0!"
0""
1#"
1$"
1%"
0'"
1("
0)"
1*"
0+"
1-"
0."
1/"
10"
12"
03"
05"
19"
0:"
0<"
1@"
0A"
0C"
1G"
0H"
0J"
1N"
0O"
0Q"
1U"
0W"
1X"
1\"
#170000000
0"
0$
06
0Y
0f
0j
0n
0r
0X"
0\"
#175000000
b11000010 !
1"
b11000010 #
1$
b10 %
b00 &
b00 '
b0010 (
b0100 ,
1-
1.
00
11
02
16
18
b00000100 ;
b11111000 <
b00000010 =
b00000010 >
b00001100 ?
b00000100 @
b00000100 A
b11000010 C
1D
1E
0G
1H
0I
b0111 J
b11000010 K
b10 M
b00 N
b00 O
b0010 P
b10 Q
b0010 R
b0010 S
b00000010 T
b10 U
b00 V
b00 W
b00000010 X
1Y
0Z
b00000100 [
b11111000 \
b00000100 c
1f
0g
1j
0k
1n
0o
b00000100 p
1r
0s
b00000100 u
b11111000 v
1w
b00001100 y
b00000111 z
0{
0|
1}
1!"
0""
1$"
0%"
1'"
1+"
0-"
1."
10"
12"
03"
15"
17"
08"
09"
0:"
1<"
0="
0>"
0?"
0@"
0A"
1C"
0D"
0E"
0F"
0G"
0H"
1J"
0K"
0L"
0M"
0N"
0O"
1Q"
0R"
0S"
0T"
0U"
b00000100 V"
1W"
1X"
1\"
#180000000
0"
0$
06
0Y
0f
0j
0n
0r
0X"
0\"
#185000000
b00111110 !
1"
b00111110 #
1$
b11 %
b10 &
b11 '
b1110 (
0-
0.
10
01
12
16
08
b00000111 ;
b00000100 <
b11111110 =
b00001011 >
b00001011 ?
b00001011 @
b00001011 B
b00111110 C
0D
0E
1G
0H
1I
b0000 J
b00111110 K
b11 M
b10 N
b11 O
b1110 P
b1110 S
b11111110 T
b11 U
b10 V
b11 W
b00001011 X
1Y
1Z
b00000111 [
b00000100 \
b00001011 `
1f
1g
1j
1k
1n
1o
b00001011 q
1r
1s
b00000111 u
b00000100 v
0w
b00001011 y
b00000100 z
1{
0}
0!"
1""
0#"
0$"
1%"
0'"
0("
1)"
0*"
0+"
1-"
0."
0/"
00"
12"
04"
05"
17"
08"
09"
0;"
0<"
0="
0>"
0@"
0B"
0C"
0E"
0G"
0I"
0J"
0L"
0N"
0P"
0Q"
0S"
0U"
0W"
1X"
1\"
#190000000
0"
0$
06
0Y
0f
0j
0n
0r
0X"
0\"
#195000000
b11000011 !
1"
b11000011 #
1$
b11 %
b00 &
b00 '
b0011 (
1-
1.
00
11
02
16
18
b00001011 ;
b11111000 <
b00000011 =
b00000011 >
b00010011 ?
b00001011 @
b00001011 A
b11000011 C
1D
1E
0G
1H
0I
b0111 J
b11000011 K
b11 M
b00 N
b00 O
b0011 P
b11 Q
b0011 R
b0011 S
b00000011 T
b11 U
b00 V
b00 W
b00000011 X
1Y
0Z
b00001011 [
b11111000 \
b00001011 d
1f
0g
1j
0k
1n
0o
1r
0s
b00001011 t
b00001011 u
b11111000 v
1w
b00010011 y
b00001111 z
1{
1}
1!"
1""
1#"
1$"
1%"
1'"
1("
1)"
1*"
1+"
0,"
0-"
1."
1/"
00"
11"
12"
13"
14"
15"
16"
07"
18"
09"
1;"
1<"
1="
1>"
0@"
1B"
1C"
0E"
0G"
1I"
1J"
0L"
0N"
1P"
1Q"
0S"
0U"
b00001011 V"
1W"
1X"
1\"
#200000000
0"
0$
06
0Y
0f
0j
0n
0r
0X"
0\"
#205000000
b00000100 !
1"
b00000100 #
1$
b01 %
b0100 (
0-
0.
10
01
12
16
08
b11111101 ;
b00000100 =
b11110101 >
b11110101 ?
b11110101 @
b11110101 B
b00000100 C
0D
0E
1G
0H
1I
b0000 J
b00000100 K
b01 M
b0100 P
b00 Q
b0000 R
b0100 S
b00000100 T
b01 U
b11110101 X
1Y
1Z
b11111101 [
b11110101 ]
b11110101 e
1f
1g
1j
1k
1n
1o
1r
1s
b11111101 u
0w
b11110101 y
b11111000 z
0}
0!"
1""
0#"
0$"
0%"
0'"
0("
0)"
0*"
0+"
1,"
0."
0/"
10"
01"
02"
05"
06"
07"
19"
1:"
0<"
1?"
1@"
1A"
0C"
1D"
1E"
1F"
1G"
1H"
0J"
1K"
1L"
1M"
1N"
1O"
0Q"
1R"
1S"
1T"
1U"
0W"
1X"
1\"
#210000000
0"
0$
06
0Y
0f
0j
0n
0r
0X"
0\"
#215000000
b11000000 !
1"
b11000000 #
1$
b00 %
b0000 (
1-
1.
00
11
02
03
16
18
b11110101 ;
b11110101 <
b00000000 =
b00000000 >
b00000000 ?
b11110101 @
b11110101 A
b11000000 C
1D
1E
0G
1H
0I
b0111 J
b11000000 K
b00 M
b0000 P
b0000 S
b00000000 T
b00 U
b00000000 X
1Y
0Z
b11110101 [
b11110101 \
b11110101 a
1f
0g
b11110101 h
1j
0k
1n
0o
1r
0s
b11110101 u
b11110101 v
1w
0x
b00000000 y
b11111111 z
1|
1}
1!"
0""
1#"
0$"
1'"
1("
1*"
1+"
1-"
1."
1/"
00"
11"
02"
03"
04"
15"
16"
18"
19"
1<"
1="
0>"
1?"
0@"
1C"
1D"
0E"
1F"
0G"
1J"
1K"
0L"
1M"
0N"
1Q"
1R"
0S"
1T"
0U"
b11110101 V"
1W"
1X"
1\"
#220000000
0"
0$
06
0Y
0f
0j
0n
0r
0X"
0\"
#225000000
1"
1$
16
1Y
1f
1j
1n
1r
1X"
1\"
#230000000
0"
0$
06
0Y
0f
0j
0n
0r
0X"
0\"
#235000000
b11000001 !
1"
b11000001 #
1$
b01 %
b0001 (
b0010 ,
16
b11111101 ;
b00000001 =
b00000001 >
b00001000 ?
b11111101 @
b11111101 A
b11000001 C
b11000001 K
b01 M
b0001 P
b01 Q
b0001 R
b0001 S
b00000001 T
b01 U
b00000001 X
1Y
b11111101 [
1f
1j
1n
1r
b11111101 u
b00001000 y
13"
17"
b11111101 V"
1X"
1\"
#240000000
0"
0$
06
0Y
0f
0j
0n
0r
0X"
0\"
#245000000
b11000010 !
1"
b11000010 #
1$
b10 %
b0010 (
b0100 ,
16
b00000100 ;
b00000010 =
b00000010 >
b00001111 ?
b00000100 @
b00000100 A
b11000010 C
b11000010 K
b10 M
b0010 P
b10 Q
b0010 R
b0010 S
b00000010 T
b10 U
b00000010 X
1Y
b00000100 [
1f
1j
1n
1r
b00000100 u
b00001111 y
b00000000 z
0{
1""
0#"
0("
1)"
0*"
0/"
10"
01"
03"
06"
17"
08"
0:"
0="
0>"
0?"
0A"
0D"
0E"
0F"
0H"
0K"
0L"
0M"
0O"
0R"
0S"
0T"
b00000100 V"
1X"
1\"
#250000000
0"
0$
06
0Y
0f
0j
0n
0r
0X"
0\"
#255000000
b11000011 !
1"
b11000011 #
1$
b11 %
b0011 (
16
b00001011 ;
b00000011 =
b00000011 >
b00010110 ?
b00001011 @
b00001011 A
b11000011 C
b11000011 K
b11 M
b0011 P
b11 Q
b0011 R
b0011 S
b00000011 T
b11 U
b00000011 X
1Y
b00001011 [
1f
1j
1n
1r
b00001011 u
b00010110 y
b00001011 z
1{
0""
1#"
1%"
1("
1)"
1*"
0,"
1/"
10"
13"
07"
18"
1="
1>"
b00001011 V"
1X"
1\"
#260000000
0"
0$
06
0Y
0f
0j
0n
0r
0X"
0\"
#265000000
b01111110 !
1"
b01111110 #
1$
b10 &
b11 '
b0010 (
0-
0.
10
12
03
16
08
b00000100 <
b00000010 =
b00000111 >
b00000111 ?
b00000111 @
b00000111 B
b01111110 C
0D
0E
1G
1I
b0000 J
b01111110 K
b10 N
b11 O
b0010 P
b10 Q
b0010 R
b0010 S
b00000010 T
b10 V
b11 W
b00000111 X
1Y
1Z
b00000100 \
b00000111 `
1f
1g
1j
1k
1n
1o
b00000111 q
1r
1s
b00000100 v
0x
b00000111 y
b11111011 z
0|
1""
1$"
0;"
0>"
1?"
1@"
0B"
1D"
0E"
1F"
1G"
0I"
1K"
0L"
1M"
1N"
0P"
1R"
0S"
1T"
1U"
0W"
1X"
1\"
#270000000
0"
0$
06
0Y
0f
0j
0n
0r
0X"
0\"
#275000000
b11000011 !
1"
b11000011 #
1$
b11 %
b00 &
b00 '
b0011 (
1-
1.
00
02
16
18
b00000111 ;
b11110101 <
b00000011 =
b00000011 >
b00010010 ?
b00000111 A
b11000011 C
1D
1E
0G
0I
b0111 J
b11000011 K
b11 M
b00 N
b00 O
b0011 P
b11 Q
b0011 R
b0011 S
b00000011 T
b11 U
b00 V
b00 W
b00000011 X
1Y
0Z
b00000111 [
b11110101 \
b00000111 d
1f
0g
1j
0k
1n
0o
1r
0s
b00000111 t
b00000111 u
b11110101 v
b00010010 y
b00001111 z
1{
1|
0""
0$"
1%"
1)"
1,"
00"
11"
03"
16"
07"
18"
1;"
1="
1>"
0?"
0@"
1B"
0D"
0E"
0F"
0G"
1I"
0K"
0L"
0M"
0N"
1P"
0R"
0S"
0T"
0U"
b00000111 V"
1W"
1X"
1\"
#280000000
0"
0$
06
0Y
0f
0j
0n
0r
0X"
0\"
